{
	"id": "8bc61b45-a6e1-41c3-9630-aea4a1bc04ba",
	"name": "OnlineBookStore",
	"values": [
		{
			"key": "apiurl",
			"value": "http://localhost:5225/",
			"type": "default",
			"enabled": true
		},
		{
			"key": "",
			"value": "",
			"type": "default",
			"enabled": true
		}
	],
	"_postman_variable_scope": "environment",
	"_postman_exported_at": "2023-11-16T09:34:43.733Z",
	"_postman_exported_using": "Postman/10.20.0"
}